…
cleaned_data %>% 
  select(Category, starts_with("Data")) %>% 
  group_by(Category) %>% 
  summarise(across(where(is.numeric), statistics)) %>% 
  pivot_longer(!Category) %>% 
  separate(name, into=c("Переменная", "Статистика"), sep="___") %>% 
  rename(`Значение` = value)
```

```
## # A tibble: 770 × 4
##    Category Переменная          Статистика               Значение
##    <fct>    <chr>               <chr>                    <chr>   
##  1 Cookie   Data_Alpha_Carotene Количество субъектов     100     
##  2 Cookie   Data_Alpha_Carotene Количество (есть данные) 100     
##  3 Cookie   Data_Alpha_Carotene Нет данных               0       
##  4 Cookie   Data_Alpha_Carotene Ср. знач.                8.25    
##  5 Cookie   Data_Alpha_Carotene Медиана                  0       
##  6 Cookie   Data_Alpha_Carotene Станд. отклон.           80.99   
##  7 Cookie   Data_Alpha_Carotene Q1 - Q3                  0 - 0   
##  8 Cookie   Data_Alpha_Carotene Интерквартильный размах  0       
##  9 Cookie   Data_Alpha_Carotene Минимум                  0       
## 10 Cookie   Data_Alpha_Carotene Максимум                 810     
## # ℹ 760 more rows
```
…
